(x(([\^][0-9]+)|([\^][\(]-[0-9]+[\)]))?)?

([\(]-[0-9]+[\)])|([0-9]*)(x(([\^][0-9]+)|([\^][\(]-[0-9]+[\)]))?)?

((-|[\+])?[0-9]*)(x(([\^][0-9]+)|([\^][\(]-[0-9]+[\)]))?)?


((-|[\+])?[0-9]*) - pt coeficient
(x(([\^][0-9]+)|([\^][\(]-[0-9]+[\)]))?)? - pt x la putere


(?<!\+|-)((-|[\+])?[0-9]*)(x(([\^][0-9]+)|([\^][\(]-[0-9]+[\)]))?)?

^[-|\+]$

(?<!\+|-)((-|[\+])?[0-9]*)(x(([\^][0-9]+)|([\^][\(]-[0-9]+[\)]))?)?

(x([\^][0-9]+)?)?


(?<!\+|-)(((-|[\+])?[0-9]*)((?<!x)x([\^][0-9]+)?)?)?